175157 482700 449
897061 984157 507
157188 363227 443
101588 522671 470
54938 902582 525
764421 724192 424
172303 21477 383
63654 577551 470
368855 891366 525
176386 66502 383
615833 311726 470
842189 567262 525
928856 787832 525
238033 609038 470
404748 760493 509
244792 799916 509
546811 432505 470
286515 303706 389
481664 745673 509
420813 153425 449
335502 346700 441
978759 556467 525
191176 460702 449
564612 335474 470
607615 388889 470
707305 353505 509
466969 681012 509
783561 904828 525
525231 335738 470
412511 655059 509
572581 14033 470
479011 495291 426
847621 174478 525
123345 251087 443
442014 79505 449
469718 127740 449
886369 347092 525
423386 429069 418
983863 995730 427
903146 786751 525
509526 388121 449
762475 826887 468
967859 224506 525
362158 140059 443
326757 617325 470
644349 247036 509
385338 417466 449
568294 556956 421
44065 863048 525
525451 903697 525
849029 559493 525
334690 764694 509
571749 533928 452
426930 490255 444
309397 194255 443
830676 473239 509
233462 469126 449
472351 503126 426
570463 37161 470
472593 202553 449
848985 331894 525
106744 431907 449
408141 204832 443
319354 254391 407
455542 866573 525
27466 97917 351
389197 161802 443
787920 104 509
134095 880552 525
88355 474248 449
15408 513515 470
155747 520317 470
477603 654662 509
962028 995888 458
178803 785395 509
161392 668324 509
646709 575101 509
943261 422745 525
360414 979897 525
885047 899400 445
555042 896104 525
937734 399524 525
381437 245477 441
32613 962521 525
806026 874258 525
112312 437654 449
454877 114433 449
649070 891038 525
213036 223566 386
371550 536710 470
938924 652393 525
547741 302540 470
849578 927769 476
211200 390522 443
495268 946811 525
974835 225664 525
856019 609194 525
287421 102408 443
695411 422009 509
453962 576168 470
534529 326276 470
602212 697121 509
916434 694522 525
989183 458962 525
741757 790203 468
908655 638938 525
669192 592214 509
173717 139378 383
664767 915012 525
979178 102139 525
172200 340145 443
262758 498905 449
139663 742442 509
195700 284660 443
256393 376465 441
477804 866545 525
536424 561771 452
155582 892828 525
550622 224479 470
65814 250815 443
785987 22147 509
435616 697191 509
909661 701644 525
668800 538003 509
808170 757322 468
145770 299999 443
771104 305722 509
185334 504392 449
369242 980373 525
762609 765565 375
107849 513959 470
242976 194519 443
140348 371049 443
661653 358782 509
580033 286006 470
649760 479913 509
778055 313069 509
683673 321162 509
61144 886820 525
104884 970307 525
328751 570735 470
543949 246653 470
923381 821079 525
670273 970435 525
1529 653529 509
85163 312525 443
424304 122638 449
270477 386804 441
498845 308175 449
835793 820717 419
416724 580456 470
850973 336659 525
243834 321089 407
865087 474145 525
93654 93306 284
789448 584151 509
787340 844505 525
809823 536628 509
348213 805001 509
374838 323237 441
930692 295248 525
552164 688056 509
694184 242462 509
417997 801662 509
618983 511434 470
530243 858018 525
663695 488671 509
472736 717037 509
904125 353718 525
933871 864694 476
169838 637089 509
142018 148459 375
459132 341557 449
488563 500572 426
173916 105891 383
324236 510040 449
547031 270232 470
138327 37221 354
203641 971278 525
836840 407543 509
100028 457408 449
376590 539795 470
467775 447460 444
908224 243172 525
268955 487584 449
541321 822182 509
93816 779840 509
264402 812022 509
548226 562485 421
776323 933050 525
239663 278416 407
541029 298511 470
749278 260428 509
444856 763098 509
733336 219451 509
309051 647513 509
195971 330654 443
463542 541062 470
461935 38148 449
882546 538127 525
46715 196679 383
492529 175376 449
908113 358319 525
619530 34901 470
851764 345877 525
552258 265750 470
937905 148120 525
805659 760545 468
796167 861093 525
988334 926009 507
342222 319773 384
534767 662172 509
732338 784154 468
100023 900636 525
455222 715157 509
472673 954656 525
453526 429852 400
774264 469736 509
621741 412235 470
743682 50542 509
515819 746780 509
237620 97395 443
166278 505098 449
963732 764946 525
528852 257115 470
654279 962181 525
402870 27202 443
512746 194690 470
70098 645503 509
892799 990347 507
937010 849520 476
206665 368385 443
522359 324074 470
48943 719428 509
686207 415497 509
798540 766310 468
424142 564130 470
520749 230048 470
967318 770139 525
17361 379140 443
469630 117017 449
840861 678387 525
585726 648038 509
588045 521474 452
827240 258523 509
159102 719115 509
729151 779720 468
229556 513649 470
801617 751419 468
803775 116108 509
330359 753919 509
770432 436870 509
661160 226849 509
230846 293312 407
262986 473989 449
662199 756336 504
986242 13090 525
118658 884461 525
735731 769114 468
773410 489834 509
533313 457660 470
663918 424337 509
811121 955372 525
661091 358236 509
704661 421180 509
917173 790404 525
19273 194185 383
473017 976560 525
932752 263858 525
749325 62905 509
621763 551115 447
142919 371592 443
53893 331603 443
41108 644828 509
817934 487866 509
694617 995569 525
315439 339582 384
286737 468014 449
255348 161197 443
985542 411191 525
745876 810196 468
725636 358393 509
303643 250916 407
188789 812215 509
111636 960760 525
414136 804755 509
671913 637062 442
55862 813248 509
142582 273566 443
13619 44365 324
551020 216635 470
117765 138206 344
126443 86480 354
833908 149143 509
926838 446489 525
36837 22170 324
795364 69625 509
994524 381939 525
299923 133353 443
48792 172457 383
