80711 797557 509
638639 289848 509
789524 431262 509
457258 90407 449
845057 821608 525
570747 230215 470
836772 534331 509
737108 233977 509
245312 645396 509
132281 959762 525
799058 539466 509
811039 379866 509
522621 241440 470
251081 336114 407
521929 997749 525
510901 755505 509
887460 848870 445
670345 94517 509
300466 305524 340
696479 262344 509
344246 843955 525
250110 954626 525
96734 627209 509
412500 741342 509
713006 762957 424
826131 619239 509
899274 340964 525
624462 961952 525
238687 552655 470
392304 153384 443
790913 39513 509
992191 10731 525
384514 317529 441
533966 892452 525
827409 472067 509
55823 554660 470
899165 167493 525
68541 255094 443
890173 386536 525
204492 124949 383
810705 43091 509
929276 409281 525
52642 15314 340
371383 84909 443
328821 227827 443
591454 640819 509
694219 578047 509
291660 694010 509
476303 568064 470
777398 556855 509
630891 171194 509
603105 590765 403
579837 473073 470
858702 101755 525
467208 91943 449
818357 158173 509
576207 404796 470
238938 187545 443
442103 697064 509
259726 447904 449
622793 467948 470
846502 186889 525
185436 313933 443
410702 520528 470
661420 849035 525
261568 776108 509
91518 888096 525
943308 957483 414
647158 566367 509
98395 424523 449
910092 779641 525
940125 146829 525
948063 902253 507
243754 906351 525
964160 857911 507
653256 630070 416
528421 975177 525
346282 15181 443
504268 930331 525
267243 246694 407
673544 156928 509
900779 372108 525
748391 294136 509
524154 981637 525
745790 182762 509
906777 229522 525
171769 581469 470
645006 296693 509
76584 510192 449
872686 231776 525
825393 842002 525
550496 133244 470
777556 918783 525
534052 156277 470
873741 920530 476
496656 917936 525
396173 429396 449
447119 866389 525
929684 839966 476
681587 227477 509
277380 731477 509
600836 1543 470
436366 210233 449
900545 245809 525
162190 312487 443
181871 198602 360
510914 353250 449
245128 183653 443
24913 644690 509
11921 510233 449
482429 518896 470
928067 832610 525
824355 522423 509
649828 798021 504
32144 948608 525
286808 641339 509
48108 459065 449
569002 639027 509
357916 555045 470
942036 330429 525
376507 194766 443
311130 37833 443
129822 26444 354
530272 48270 470
659814 746528 504
669868 214615 509
555321 985084 525
982549 723658 525
167872 538903 470
503372 643929 509
716544 654872 504
316825 925327 525
677661 224749 509
83961 623420 470
125423 211681 383
565138 316408 470
788467 328419 509
970531 588619 525
978147 133342 525
908540 256294 525
170913 108310 383
316152 619999 470
619090 651362 509
487748 654010 509
605062 157488 470
719591 916975 525
973748 732303 525
237645 764591 509
992390 15224 525
746410 597684 509
178090 279083 443
225194 865814 525
219716 19017 386
301895 576553 470
56709 751741 509
253554 911638 525
565469 503046 470
580179 22868 470
439701 562936 470
339424 176309 443
807321 210145 509
357048 467957 449
360407 625005 470
781135 352166 509
673959 456974 509
264613 905621 525
131461 513294 470
552695 893001 525
592694 204504 470
412698 30358 449
841574 70363 525
101149 976569 525
172046 978096 525
441868 439084 356
475050 946665 525
762410 301078 509
318855 943792 525
990848 180902 525
94693 440624 449
791000 702825 504
108889 981535 525
774747 660451 504
592489 967746 525
804208 195120 509
74567 328332 443
690724 890085 525
910481 593118 525
635881 17796 509
531225 569797 452
254397 697145 509
418294 855983 525
56252 238747 443
331622 23209 443
522172 517982 439
805935 378004 509
893901 330385 525
553590 417137 470
435284 470081 444
55166 172180 383
404585 72395 443
964878 350713 525
858438 713756 525
259844 647645 509
551942 58184 470
945992 775712 525
381578 600810 470
212512 115225 383
308525 916330 525
848387 7632 525
206576 249270 443
729617 43926 509
595228 735551 509
511384 528102 470
80049 141831 354
643603 907146 525
944768 725473 525
730273 294342 509
255887 188634 443
242507 533563 470
181415 948914 525
959425 488190 525
757060 71983 509
