814830 453294 509
240059 56928 443
944461 642671 525
88825 410102 449
98954 308956 443
741316 178516 509
210490 674134 509
197623 590132 470
414201 559007 470
908387 848300 445
650550 916407 525
932487 965731 507
507592 319601 449
210462 607567 470
199389 830873 509
424820 802175 509
532159 957485 525
244099 111683 443
259702 383612 441
627129 689339 442
58449 422972 449
301138 1241 443
615446 678186 509
194505 356367 443
779832 751454 468
422861 824733 509
23724 759525 509
234100 467325 449
454383 256130 449
785676 924827 525
952402 52677 525
732950 442733 509
396743 932857 525
759532 484186 509
761119 977195 525
156097 428280 449
730346 56693 509
379311 468613 449
451985 959490 525
986125 260533 525
213341 535683 470
454726 203838 449
455822 236661 449
591954 657757 509
15757 364810 443
498111 69326 449
698032 502557 509
908356 381460 525
256587 720938 509
135495 539297 470
634465 146968 509
63235 303778 443
330823 768889 509
943682 153151 525
41845 135165 354
198285 155678 383
524928 586229 452
150761 475908 449
650749 105978 509
671728 968513 525
822820 626981 504
292447 251497 407
826992 827388 375
198142 893487 525
605140 44809 470
718078 243420 509
201563 596498 470
959186 503337 525
370332 221370 443
851021 573951 525
580730 833619 509
845295 751257 525
545315 2229 470
168220 882188 525
7915 334437 443
293733 754453 509
691974 802625 504
237415 322009 407
801063 5187 509
969755 917948 507
764182 29671 509
999940 528028 525
141363 708344 509
972088 302254 525
552544 829618 509
856016 87019 525
628807 201177 509
403072 619042 470
675382 728845 504
636822 62774 509
358655 212867 443
324583 68071 443
990674 648775 525
126856 411166 449
954275 994437 458
157165 928910 525
781730 143940 509
18045 991907 525
567614 646718 509
30682 63421 340
199026 418581 449
270264 711066 509
896372 988181 507
86468 57080 351
493538 430285 444
257052 79571 443
741799 644276 504
153853 145737 370
893828 82261 525
462679 459834 444
14359 379828 443
531296 974936 525
303161 528459 470
32063 476516 449
821696 769153 468
451339 703760 509
508282 720091 509
308145 438845 449
565306 587304 434
216666 739650 509
746334 608749 509
112673 34238 354
257359 11274 443
918201 935151 476
824944 751514 468
27615 234160 443
432248 550173 470
864867 133244 525
899329 807047 525
939525 756789 525
814081 908010 525
212951 608533 470
320056 886927 525
804995 636142 504
236406 376038 441
219114 160665 386
637819 993198 525
683724 426242 509
36361 662734 509
919602 67151 525
604909 276070 470
3107 166840 383
717020 630420 504
497576 185010 449
699150 342281 509
440733 138672 449
875799 486214 525
730436 687930 504
459037 470211 444
401174 366310 436
914708 43798 525
852228 627987 525
903565 689979 525
597100 108694 470
393442 77557 443
111558 493112 449
506596 98044 449
103389 419502 449
37558 364256 443
440333 382307 449
277336 780864 509
275216 855120 525
222041 267368 443
252668 558778 470
227085 430826 449
347767 666056 509
679107 487868 509
306361 612897 470
973967 410136 525
375096 578044 470
39011 265957 443
145331 782369 509
608317 561706 434
776993 57709 509
123663 868805 525
141615 867261 525
507793 758975 509
410687 689798 509
860372 955037 507
596161 989168 525
307379 647795 509
922302 250230 525
531355 808165 509
614107 744461 509
251675 424788 449
289659 442331 449
500918 395411 449
912164 987520 507
62312 724029 509
428242 600061 470
989643 476042 525
433314 777525 509
163215 863393 525
887247 364607 525
630096 938526 525
100360 743529 509
94167 794098 509
846193 606220 525
939895 556925 525
192367 925083 525
407810 124177 443
364374 475280 449
772062 595102 509
293541 811781 509
205122 224910 386
97730 296834 443
326162 221902 443
624326 189676 470
14170 103434 351
660935 256255 509
231835 505341 449
589147 85257 470
980917 782095 525
922780 259008 525
110279 955350 525
463031 508100 426
163985 358739 443
